[
   {
      "id": "9c291f85-6f00-4315-9e55-724d46d190a6",
      "name": "Tiburon",
      "price": 1507.34,
      "city": "Cauto Cristo"
   },
   {
      "id": "d5cc9e79-07cd-46a7-9f54-51c90cdb4454",
      "name": "MKT",
      "price": 1581.69,
      "city": "Tangkilsari"
   },
   {
      "id": "459b043d-91aa-48ad-8fa3-c32136684734",
      "name": "Ram 3500",
      "price": 1520.35,
      "city": "Padaimut"
   },
   {
      "id": "662a257d-f762-4ab7-a358-97cafb24a9dd",
      "name": "62",
      "price": 1501.89,
      "city": "Vrýses"
   },
   {
      "id": "b52362f5-c02e-42af-9ada-4d129abde5f4",
      "name": "9-3",
      "price": 1526.43,
      "city": "Nansha"
   },
   {
      "id": "d59cad55-ce2c-4bae-a4f6-8624b858bac4",
      "name": "CLS-Class",
      "price": 1548.79,
      "city": "Sundsvall"
   },
   {
      "id": "0f07f75c-da9e-4a0f-8386-7a5bfe38319a",
      "name": "GTO",
      "price": 1514.87,
      "city": "Dabat"
   }
]