{
    "metaData": {
        "secretKey": "very-long-and-hard-to-guess-secret-pass-phrase"
    },
    "users": [
        {"username": "...", "password": "..."},
        ...
    ],
    "products": [...your data here...]
}
